%YAML 1.1
%TAG !u! tag:unity3d.com,2011:
--- !u!1001 &7467864572972644745
PrefabInstance:
  m_ObjectHideFlags: 0
  serializedVersion: 2
  m_Modification:
    m_TransformParent: {fileID: 0}
    m_Modifications:
    - target: {fileID: 4505771842506672707, guid: fb4a76c6b7615d8b2a8bf590860107ac, type: 3}
      propertyPath: m_Name
      value: Enemy 1
      objectReference: {fileID: 0}
    - target: {fileID: 4505771842506672716, guid: fb4a76c6b7615d8b2a8bf590860107ac, type: 3}
      propertyPath: m_Color.b
      value: 0
      objectReference: {fileID: 0}
    - target: {fileID: 4505771842506672716, guid: fb4a76c6b7615d8b2a8bf590860107ac, type: 3}
      propertyPath: m_Color.g
      value: 0
      objectReference: {fileID: 0}
    - target: {fileID: 4505771842506672716, guid: fb4a76c6b7615d8b2a8bf590860107ac, type: 3}
      propertyPath: m_Color.r
      value: 1
      objectReference: {fileID: 0}
    - target: {fileID: 4505771842506672717, guid: fb4a76c6b7615d8b2a8bf590860107ac, type: 3}
      propertyPath: m_RootOrder
      value: 0
      objectReference: {fileID: 0}
    - target: {fileID: 4505771842506672717, guid: fb4a76c6b7615d8b2a8bf590860107ac, type: 3}
      propertyPath: m_LocalPosition.x
      value: 0
      objectReference: {fileID: 0}
    - target: {fileID: 4505771842506672717, guid: fb4a76c6b7615d8b2a8bf590860107ac, type: 3}
      propertyPath: m_LocalPosition.y
      value: 0
      objectReference: {fileID: 0}
    - target: {fileID: 4505771842506672717, guid: fb4a76c6b7615d8b2a8bf590860107ac, type: 3}
      propertyPath: m_LocalPosition.z
      value: 0
      objectReference: {fileID: 0}
    - target: {fileID: 4505771842506672717, guid: fb4a76c6b7615d8b2a8bf590860107ac, type: 3}
      propertyPath: m_LocalRotation.w
      value: 1
      objectReference: {fileID: 0}
    - target: {fileID: 4505771842506672717, guid: fb4a76c6b7615d8b2a8bf590860107ac, type: 3}
      propertyPath: m_LocalRotation.x
      value: 0
      objectReference: {fileID: 0}
    - target: {fileID: 4505771842506672717, guid: fb4a76c6b7615d8b2a8bf590860107ac, type: 3}
      propertyPath: m_LocalRotation.y
      value: 0
      objectReference: {fileID: 0}
    - target: {fileID: 4505771842506672717, guid: fb4a76c6b7615d8b2a8bf590860107ac, type: 3}
      propertyPath: m_LocalRotation.z
      value: 0
      objectReference: {fileID: 0}
    - target: {fileID: 4505771842506672717, guid: fb4a76c6b7615d8b2a8bf590860107ac, type: 3}
      propertyPath: m_LocalEulerAnglesHint.x
      value: 0
      objectReference: {fileID: 0}
    - target: {fileID: 4505771842506672717, guid: fb4a76c6b7615d8b2a8bf590860107ac, type: 3}
      propertyPath: m_LocalEulerAnglesHint.y
      value: 0
      objectReference: {fileID: 0}
    - target: {fileID: 4505771842506672717, guid: fb4a76c6b7615d8b2a8bf590860107ac, type: 3}
      propertyPath: m_LocalEulerAnglesHint.z
      value: 0
      objectReference: {fileID: 0}
    m_RemovedComponents:
    - {fileID: 5052002936826406357, guid: fb4a76c6b7615d8b2a8bf590860107ac, type: 3}
  m_SourcePrefab: {fileID: 100100000, guid: fb4a76c6b7615d8b2a8bf590860107ac, type: 3}
--- !u!50 &1685337052011944638 stripped
Rigidbody2D:
  m_CorrespondingSourceObject: {fileID: 8124681047024329527, guid: fb4a76c6b7615d8b2a8bf590860107ac, type: 3}
  m_PrefabInstance: {fileID: 7467864572972644745}
  m_PrefabAsset: {fileID: 0}
--- !u!4 &3709327446854875923 stripped
Transform:
  m_CorrespondingSourceObject: {fileID: 6113921180822274714, guid: fb4a76c6b7615d8b2a8bf590860107ac, type: 3}
  m_PrefabInstance: {fileID: 7467864572972644745}
  m_PrefabAsset: {fileID: 0}
--- !u!4 &6423427043514610628 stripped
Transform:
  m_CorrespondingSourceObject: {fileID: 4505771842506672717, guid: fb4a76c6b7615d8b2a8bf590860107ac, type: 3}
  m_PrefabInstance: {fileID: 7467864572972644745}
  m_PrefabAsset: {fileID: 0}
--- !u!1 &6423427043514610634 stripped
GameObject:
  m_CorrespondingSourceObject: {fileID: 4505771842506672707, guid: fb4a76c6b7615d8b2a8bf590860107ac, type: 3}
  m_PrefabInstance: {fileID: 7467864572972644745}
  m_PrefabAsset: {fileID: 0}
--- !u!114 &6227128895084666394
MonoBehaviour:
  m_ObjectHideFlags: 0
  m_CorrespondingSourceObject: {fileID: 0}
  m_PrefabInstance: {fileID: 0}
  m_PrefabAsset: {fileID: 0}
  m_GameObject: {fileID: 6423427043514610634}
  m_Enabled: 1
  m_EditorHideFlags: 0
  m_Script: {fileID: 11500000, guid: a369595c142e8ccfd9716f828d88ee28, type: 3}
  m_Name: 
  m_EditorClassIdentifier: 
  maxHp: 10
  trs: {fileID: 6423427043514610628}
  rigid: {fileID: 1685337052011944638}
  moveSpeed: 1
  attackEntries:
  - bulletPattern: {fileID: 11400000, guid: 4112e20120cf5c457a512f8f80abf362, type: 2}
    bulletPrefab: {fileID: 1967065883951318333, guid: 98ce30c8a9e8dfcb19a531f0b9991eec, type: 3}
    spawner: {fileID: 3709327446854875923}
    attackInterval: 1
    timeRemainingTillAttack: 1
