%YAML 1.1
%TAG !u! tag:unity3d.com,2011:
--- !u!1 &3925859381443399412
GameObject:
  m_ObjectHideFlags: 0
  m_CorrespondingSourceObject: {fileID: 0}
  m_PrefabInstance: {fileID: 0}
  m_PrefabAsset: {fileID: 0}
  serializedVersion: 6
  m_Component:
  - component: {fileID: 3310995802833248872}
  - component: {fileID: 368066154425285198}
  m_Layer: 0
  m_Name: Game Manager
  m_TagString: Untagged
  m_Icon: {fileID: 0}
  m_NavMeshLayer: 0
  m_StaticEditorFlags: 0
  m_IsActive: 1
--- !u!4 &3310995802833248872
Transform:
  m_ObjectHideFlags: 0
  m_CorrespondingSourceObject: {fileID: 0}
  m_PrefabInstance: {fileID: 0}
  m_PrefabAsset: {fileID: 0}
  m_GameObject: {fileID: 3925859381443399412}
  m_LocalRotation: {x: 0, y: 0, z: 0, w: 1}
  m_LocalPosition: {x: 0, y: 0, z: 0}
  m_LocalScale: {x: 1, y: 1, z: 1}
  m_ConstrainProportionsScale: 0
  m_Children:
  - {fileID: 8106105503448922315}
  - {fileID: 1437890375865185706}
  m_Father: {fileID: 0}
  m_RootOrder: 0
  m_LocalEulerAnglesHint: {x: 0, y: 0, z: 0}
--- !u!114 &368066154425285198
MonoBehaviour:
  m_ObjectHideFlags: 0
  m_CorrespondingSourceObject: {fileID: 0}
  m_PrefabInstance: {fileID: 0}
  m_PrefabAsset: {fileID: 0}
  m_GameObject: {fileID: 3925859381443399412}
  m_Enabled: 1
  m_EditorHideFlags: 0
  m_Script: {fileID: 11500000, guid: 64ee96cfd35d97944bfe33b4d39732ad, type: 3}
  m_Name: 
  m_EditorClassIdentifier: 
  handleMultipleInstances: 0
  persistant: 0
--- !u!1001 &1611085565440268487
PrefabInstance:
  m_ObjectHideFlags: 0
  serializedVersion: 2
  m_Modification:
    m_TransformParent: {fileID: 3310995802833248872}
    m_Modifications:
    - target: {fileID: 409775221608164717, guid: a0221648240cf2b1b971a129de8ea83a, type: 3}
      propertyPath: m_RootOrder
      value: 1
      objectReference: {fileID: 0}
    - target: {fileID: 409775221608164717, guid: a0221648240cf2b1b971a129de8ea83a, type: 3}
      propertyPath: m_LocalPosition.x
      value: 0
      objectReference: {fileID: 0}
    - target: {fileID: 409775221608164717, guid: a0221648240cf2b1b971a129de8ea83a, type: 3}
      propertyPath: m_LocalPosition.y
      value: 0
      objectReference: {fileID: 0}
    - target: {fileID: 409775221608164717, guid: a0221648240cf2b1b971a129de8ea83a, type: 3}
      propertyPath: m_LocalPosition.z
      value: 0
      objectReference: {fileID: 0}
    - target: {fileID: 409775221608164717, guid: a0221648240cf2b1b971a129de8ea83a, type: 3}
      propertyPath: m_LocalRotation.w
      value: 1
      objectReference: {fileID: 0}
    - target: {fileID: 409775221608164717, guid: a0221648240cf2b1b971a129de8ea83a, type: 3}
      propertyPath: m_LocalRotation.x
      value: 0
      objectReference: {fileID: 0}
    - target: {fileID: 409775221608164717, guid: a0221648240cf2b1b971a129de8ea83a, type: 3}
      propertyPath: m_LocalRotation.y
      value: 0
      objectReference: {fileID: 0}
    - target: {fileID: 409775221608164717, guid: a0221648240cf2b1b971a129de8ea83a, type: 3}
      propertyPath: m_LocalRotation.z
      value: 0
      objectReference: {fileID: 0}
    - target: {fileID: 409775221608164717, guid: a0221648240cf2b1b971a129de8ea83a, type: 3}
      propertyPath: m_LocalEulerAnglesHint.x
      value: 0
      objectReference: {fileID: 0}
    - target: {fileID: 409775221608164717, guid: a0221648240cf2b1b971a129de8ea83a, type: 3}
      propertyPath: m_LocalEulerAnglesHint.y
      value: 0
      objectReference: {fileID: 0}
    - target: {fileID: 409775221608164717, guid: a0221648240cf2b1b971a129de8ea83a, type: 3}
      propertyPath: m_LocalEulerAnglesHint.z
      value: 0
      objectReference: {fileID: 0}
    - target: {fileID: 1453576448931548062, guid: a0221648240cf2b1b971a129de8ea83a, type: 3}
      propertyPath: m_Name
      value: Scene Manager
      objectReference: {fileID: 0}
    m_RemovedComponents: []
  m_SourcePrefab: {fileID: 100100000, guid: a0221648240cf2b1b971a129de8ea83a, type: 3}
--- !u!4 &1437890375865185706 stripped
Transform:
  m_CorrespondingSourceObject: {fileID: 409775221608164717, guid: a0221648240cf2b1b971a129de8ea83a, type: 3}
  m_PrefabInstance: {fileID: 1611085565440268487}
  m_PrefabAsset: {fileID: 0}
--- !u!1001 &8489703547907036582
PrefabInstance:
  m_ObjectHideFlags: 0
  serializedVersion: 2
  m_Modification:
    m_TransformParent: {fileID: 3310995802833248872}
    m_Modifications:
    - target: {fileID: 409775221608164717, guid: a7923eec398f993418874f35c4619c38, type: 3}
      propertyPath: m_RootOrder
      value: 0
      objectReference: {fileID: 0}
    - target: {fileID: 409775221608164717, guid: a7923eec398f993418874f35c4619c38, type: 3}
      propertyPath: m_LocalPosition.x
      value: 0
      objectReference: {fileID: 0}
    - target: {fileID: 409775221608164717, guid: a7923eec398f993418874f35c4619c38, type: 3}
      propertyPath: m_LocalPosition.y
      value: 0
      objectReference: {fileID: 0}
    - target: {fileID: 409775221608164717, guid: a7923eec398f993418874f35c4619c38, type: 3}
      propertyPath: m_LocalPosition.z
      value: 0
      objectReference: {fileID: 0}
    - target: {fileID: 409775221608164717, guid: a7923eec398f993418874f35c4619c38, type: 3}
      propertyPath: m_LocalRotation.w
      value: 1
      objectReference: {fileID: 0}
    - target: {fileID: 409775221608164717, guid: a7923eec398f993418874f35c4619c38, type: 3}
      propertyPath: m_LocalRotation.x
      value: 0
      objectReference: {fileID: 0}
    - target: {fileID: 409775221608164717, guid: a7923eec398f993418874f35c4619c38, type: 3}
      propertyPath: m_LocalRotation.y
      value: 0
      objectReference: {fileID: 0}
    - target: {fileID: 409775221608164717, guid: a7923eec398f993418874f35c4619c38, type: 3}
      propertyPath: m_LocalRotation.z
      value: 0
      objectReference: {fileID: 0}
    - target: {fileID: 409775221608164717, guid: a7923eec398f993418874f35c4619c38, type: 3}
      propertyPath: m_LocalEulerAnglesHint.x
      value: 0
      objectReference: {fileID: 0}
    - target: {fileID: 409775221608164717, guid: a7923eec398f993418874f35c4619c38, type: 3}
      propertyPath: m_LocalEulerAnglesHint.y
      value: 0
      objectReference: {fileID: 0}
    - target: {fileID: 409775221608164717, guid: a7923eec398f993418874f35c4619c38, type: 3}
      propertyPath: m_LocalEulerAnglesHint.z
      value: 0
      objectReference: {fileID: 0}
    - target: {fileID: 1453576448931548062, guid: a7923eec398f993418874f35c4619c38, type: 3}
      propertyPath: m_Name
      value: Input Manager
      objectReference: {fileID: 0}
    m_RemovedComponents: []
  m_SourcePrefab: {fileID: 100100000, guid: a7923eec398f993418874f35c4619c38, type: 3}
--- !u!4 &8106105503448922315 stripped
Transform:
  m_CorrespondingSourceObject: {fileID: 409775221608164717, guid: a7923eec398f993418874f35c4619c38, type: 3}
  m_PrefabInstance: {fileID: 8489703547907036582}
  m_PrefabAsset: {fileID: 0}
