%YAML 1.1
%TAG !u! tag:unity3d.com,2011:
--- !u!78 &1
TagManager:
  serializedVersion: 2
  tags: []
  layers:
  - Default
  - TransparentFX
  - Ignore Raycast
  - 
  - Water
  - UI
  - Player
  - Wall
  - Enemy
  - Enemy Bullet
  - Player Bullet
  - 
  - 
  - 
  - 
  - 
  - 
  - 
  - 
  - 
  - 
  - 
  - 
  - 
  - 
  - 
  - 
  - 
  - 
  - 
  - 
  - 
  m_SortingLayers:
  - name: Back
    uniqueID: 1611912277
    locked: 0
  - name: Default
    uniqueID: 0
    locked: 0
  - name: Front
    uniqueID: 3369872021
    locked: 0
  - name: UI
    uniqueID: 1445230051
    locked: 0
